^C:\USERS\DANIF\SOURCE\REPOS\TASK15\TASK15.CPP
C:\USERS\DANIF\SOURCE\REPOS\TASK15\X64\DEBUG\VC143.PDB
C:\USERS\DANIF\SOURCE\REPOS\TASK15\X64\DEBUG\VC143.IDB
C:\USERS\DANIF\SOURCE\REPOS\TASK15\X64\DEBUG\TASK15.OBJ
