^C:\USERS\DANIF\SOURCE\REPOS\TASK15\X64\DEBUG\TASK15.OBJ
C:\USERS\DANIF\SOURCE\REPOS\TASK15\X64\DEBUG\TASK15.EXE
C:\USERS\DANIF\SOURCE\REPOS\TASK15\X64\DEBUG\TASK15.ILK
C:\USERS\DANIF\SOURCE\REPOS\TASK15\X64\DEBUG\TASK15.PDB
